{
  "items": [
    {
      "id": 1,
      "image_url": "https://picsum.photos/500/350",
      "name": "3/6（日）六本木フレンチフルコースランチレポ",
      "group": {
        "id": 1,
        "name": "グループ名"
      },
      "description": "六本木フレンチフルコースのイベントに参加の皆さん、ありがとうございました✨ 2022年ミシュラン一ツ星を獲得しているとても素敵なレストラン✨ 思い込みの強いオバサンの脳を刺激するような、意外性と手の込んだ一皿一皿に感激した1日でした 12時からランチが始まり...",
      "created_at": 1687219210000,
      "created_user": {
        "id": 1,
        "name": "山田 太郎",
        "avatar_url": "https://picsum.photos/200"
      },
      "view_count": 240,
      "comment_count": 4
    },
    {
      "id": 2,
      "image_url": "https://picsum.photos/500/350",
      "name": "3/6（日）六本木フレンチフルコースランチレポ",
      "group": {
        "id": 1,
        "name": "グループ名"
      },
      "description": "六本木フレンチフルコースのイベントに参加の皆さん、ありがとうございました✨ 2022年ミシュラン一ツ星を獲得しているとても素敵なレストラン✨ 思い込みの強いオバサンの脳を刺激するような、意外性と手の込んだ一皿一皿に感激した1日でした 12時からランチが始まり...",
      "created_at": 1687219210000,
      "created_user": {
        "id": 1,
        "name": "山田 太郎",
        "avatar_url": "https://picsum.photos/200"
      },
      "view_count": 240,
      "comment_count": 4
    },
    {
      "id": 3,
      "image_url": "https://picsum.photos/500/350",
      "name": "3/6（日）六本木フレンチフルコースランチレポ",
      "group": {
        "id": 1,
        "name": "グループ名"
      },
      "description": "六本木フレンチフルコースのイベントに参加の皆さん、ありがとうございました✨ 2022年ミシュラン一ツ星を獲得しているとても素敵なレストラン✨ 思い込みの強いオバサンの脳を刺激するような、意外性と手の込んだ一皿一皿に感激した1日でした 12時からランチが始まり...",
      "created_at": 1687219210000,
      "created_user": {
        "id": 1,
        "name": "山田 太郎",
        "avatar_url": "https://picsum.photos/200"
      },
      "view_count": 240,
      "comment_count": 4
    },
    {
      "id": 4,
      "image_url": "https://picsum.photos/500/350",
      "name": "3/6（日）六本木フレンチフルコースランチレポ",
      "group": {
        "id": 1,
        "name": "グループ名"
      },
      "description": "六本木フレンチフルコースのイベントに参加の皆さん、ありがとうございました✨ 2022年ミシュラン一ツ星を獲得しているとても素敵なレストラン✨ 思い込みの強いオバサンの脳を刺激するような、意外性と手の込んだ一皿一皿に感激した1日でした 12時からランチが始まり...",
      "created_at": 1687219210000,
      "created_user": {
        "id": 1,
        "name": "山田 太郎",
        "avatar_url": "https://picsum.photos/200"
      },
      "view_count": 240,
      "comment_count": 4
    },
    {
      "id": 5,
      "image_url": "https://picsum.photos/500/350",
      "name": "3/6（日）六本木フレンチフルコースランチレポ",
      "group": {
        "id": 1,
        "name": "グループ名"
      },
      "description": "六本木フレンチフルコースのイベントに参加の皆さん、ありがとうございました✨ 2022年ミシュラン一ツ星を獲得しているとても素敵なレストラン✨ 思い込みの強いオバサンの脳を刺激するような、意外性と手の込んだ一皿一皿に感激した1日でした 12時からランチが始まり...",
      "created_at": 1687219210000,
      "created_user": {
        "id": 1,
        "name": "山田 太郎",
        "avatar_url": "https://picsum.photos/200"
      },
      "view_count": 240,
      "comment_count": 4
    },
    {
      "id": 6,
      "image_url": "https://picsum.photos/500/350",
      "name": "3/6（日）六本木フレンチフルコースランチレポ",
      "group": {
        "id": 1,
        "name": "グループ名"
      },
      "description": "六本木フレンチフルコースのイベントに参加の皆さん、ありがとうございました✨ 2022年ミシュラン一ツ星を獲得しているとても素敵なレストラン✨ 思い込みの強いオバサンの脳を刺激するような、意外性と手の込んだ一皿一皿に感激した1日でした 12時からランチが始まり...",
      "created_at": 1687219210000,
      "created_user": {
        "id": 1,
        "name": "山田 太郎",
        "avatar_url": "https://picsum.photos/200"
      },
      "view_count": 240,
      "comment_count": 4
    }
  ],
  "pageInfo": {
    "currentPage": 1,
    "limitValue": 20,
    "totalCount": 100,
    "totalPages": 5
  }
}
