{
  "items": [
    {
      "id": 1,
      "content": "いいですね！私も気になっていた話題なのでお話を聞いてみたいです！私も気になっていた話題なのでお話を聞いてみたいです！私も気になっていた話題なのでお話を聞いてみたいです！来週のイベント楽しみにしています。",
      "is_liked": true,
      "user": {
        "id": 1,
        "image_url": "https://picsum.photos/500/350",
        "name": "ユーザー名"
      },
      "created_at": 1687219210000
    },
    {
      "id": 2,
      "content": "いいですね！私も気になっていた話題なのでお話を聞いてみたいです！私も気になっていた話題なのでお話を聞いてみたいです！私も気になっていた話題なのでお話を聞いてみたいです！来週のイベント楽しみにしています。",
      "is_liked": false,
      "user": {
        "id": 2,
        "image_url": "https://picsum.photos/500/350",
        "name": "ユーザー名"
      },
      "created_at": 1687219210000
    },
    {
      "id": 3,
      "content": "いいですね！私も気になっていた話題なのでお話を聞いてみたいです！私も気になっていた話題なのでお話を聞いてみたいです！私も気になっていた話題なのでお話を聞いてみたいです！来週のイベント楽しみにしています。",
      "is_liked": false,
      "user": {
        "id": 3,
        "image_url": "https://picsum.photos/500/350",
        "name": "ユーザー名"
      },
      "created_at": 1687219210000
    },
    {
      "id": 4,
      "content": "いいですね！私も気になっていた話題なのでお話を聞いてみたいです！私も気になっていた話題なのでお話を聞いてみたいです！私も気になっていた話題なのでお話を聞いてみたいです！来週のイベント楽しみにしています。",
      "is_liked": false,
      "user": {
        "id": 5,
        "image_url": "https://picsum.photos/500/350",
        "name": "ユーザー名"
      },
      "created_at": 1687219210000
    }
  ],
  "pageInfo": {
    "currentPage": 1,
    "limitValue": 20,
    "totalCount": 100,
    "totalPages": 5
  }
}
