{
  "items": [
    {
      "id": 1,
      "image_url": "https://picsum.photos/500/350",
      "name": "ゆる募・第30回オンラインカラオケ会を開催します",
      "location": {
        "name": "東京目黒区"
      },
      "member_amount": 67,
      "is_liked": false,
      "start_date": 1687219210000,
      "created_user": {
        "id": 1,
        "name": "新宿シニアカラオケ部",
        "avatar_url": "https://picsum.photos/200"
      }
    },
    {
      "id": 2,
      "image_url": "https://picsum.photos/500/350",
      "name": "ゆる募・第30回オンラインカラオケ会を開催します",
      "location": {
        "name": "東京目黒区"
      },
      "member_amount": 67,
      "is_liked": false,
      "start_date": 1687219210000,
      "created_user": {
        "id": 1,
        "name": "新宿シニアカラオケ部",
        "avatar_url": "https://picsum.photos/200"
      }
    },
    {
      "id": 3,
      "image_url": "https://picsum.photos/500/350",
      "name": "ゆる募・第30回オンラインカラオケ会を開催します",
      "location": {
        "name": "東京目黒区"
      },
      "member_amount": 67,
      "is_liked": false,
      "start_date": 1687219210000,
      "created_user": {
        "id": 1,
        "name": "新宿シニアカラオケ部",
        "avatar_url": "https://picsum.photos/200"
      }
    },
    {
      "id": 4,
      "image_url": "https://picsum.photos/500/350",
      "name": "ゆる募・第30回オンラインカラオケ会を開催します",
      "location": {
        "name": "東京目黒区"
      },
      "member_amount": 67,
      "is_liked": false,
      "start_date": 1687219210000,
      "created_user": {
        "id": 1,
        "name": "新宿シニアカラオケ部",
        "avatar_url": "https://picsum.photos/200"
      }
    },
    {
      "id": 5,
      "image_url": "https://picsum.photos/500/350",
      "name": "ゆる募・第30回オンラインカラオケ会を開催します",
      "location": {
        "name": "東京目黒区"
      },
      "member_amount": 67,
      "is_liked": false,
      "start_date": 1687219210000,
      "created_user": {
        "id": 1,
        "name": "新宿シニアカラオケ部",
        "avatar_url": "https://picsum.photos/200"
      }
    },
    {
      "id": 6,
      "image_url": "https://picsum.photos/500/350",
      "name": "ゆる募・第30回オンラインカラオケ会を開催します",
      "location": {
        "name": "東京目黒区"
      },
      "member_amount": 67,
      "is_liked": false,
      "start_date": 1687219210000,
      "created_user": {
        "id": 1,
        "name": "新宿シニアカラオケ部",
        "avatar_url": "https://picsum.photos/200"
      }
    }
  ],
  "pageInfo": {
    "currentPage": 1,
    "limitValue": 20,
    "totalCount": 100,
    "totalPages": 5
  }
}
